%YAML 1.1
%TAG !u! tag:unity3d.com,2011:
--- !u!114 &11400000
MonoBehaviour:
  m_ObjectHideFlags: 0
  m_CorrespondingSourceObject: {fileID: 0}
  m_PrefabInstance: {fileID: 0}
  m_PrefabAsset: {fileID: 0}
  m_GameObject: {fileID: 0}
  m_Enabled: 1
  m_EditorHideFlags: 0
  m_Script: {fileID: 11500000, guid: abd43ff5c1364afaa994886bae818164, type: 3}
  m_Name: ThirdPersonCamera
  m_EditorClassIdentifier: 
  cameraType: 0
  sensitivity: 1
  crossHairSprite: {fileID: 21300000, guid: 49a6b8ec609b56a4da5529d62793f36c, type: 3}
  crossHairHit: {fileID: 0}
