%YAML 1.1
%TAG !u! tag:unity3d.com,2011:
--- !u!114 &11400000
MonoBehaviour:
  m_ObjectHideFlags: 0
  m_CorrespondingSourceObject: {fileID: 0}
  m_PrefabInstance: {fileID: 0}
  m_PrefabAsset: {fileID: 0}
  m_GameObject: {fileID: 0}
  m_Enabled: 1
  m_EditorHideFlags: 0
  m_Script: {fileID: 11500000, guid: 0cfe6eee83594df683369ef2dc9b2076, type: 3}
  m_Name: Gun
  m_EditorClassIdentifier: 
  prefab: {fileID: 1562996608389564, guid: a1608518da2a041418e8a5351d223d94, type: 3}
  itemIcon: {fileID: 21300000, guid: 321d0e206e687574eb78d6c44f706349, type: 3}
