%YAML 1.1
%TAG !u! tag:unity3d.com,2011:
--- !u!114 &11400000
MonoBehaviour:
  m_ObjectHideFlags: 0
  m_CorrespondingSourceObject: {fileID: 0}
  m_PrefabInstance: {fileID: 0}
  m_PrefabAsset: {fileID: 0}
  m_GameObject: {fileID: 0}
  m_Enabled: 1
  m_EditorHideFlags: 0
  m_Script: {fileID: 11500000, guid: 0cfe6eee83594df683369ef2dc9b2076, type: 3}
  m_Name: Revolver
  m_EditorClassIdentifier: 
  prefab: {fileID: 1111015175407080, guid: 151fe3144103e1440900697f4b29c68e, type: 3}
  itemIcon: {fileID: 21300000, guid: d914f59cdb5ab264e9374cc37509a1e4, type: 3}
