%YAML 1.1
%TAG !u! tag:unity3d.com,2011:
--- !u!114 &11400000
MonoBehaviour:
  m_ObjectHideFlags: 0
  m_CorrespondingSourceObject: {fileID: 0}
  m_PrefabInstance: {fileID: 0}
  m_PrefabAsset: {fileID: 0}
  m_GameObject: {fileID: 0}
  m_Enabled: 1
  m_EditorHideFlags: 0
  m_Script: {fileID: 11500000, guid: 0cfe6eee83594df683369ef2dc9b2076, type: 3}
  m_Name: SubGun
  m_EditorClassIdentifier: 
  prefab: {fileID: 1555594515587678, guid: b1dcc002da85e2145adcf0f42460ac4b, type: 3}
  itemIcon: {fileID: 21300000, guid: 188ca170c71298240b6c10695e2f5722, type: 3}
