%YAML 1.1
%TAG !u! tag:unity3d.com,2011:
--- !u!1 &4079062733244866532
GameObject:
  m_ObjectHideFlags: 0
  m_CorrespondingSourceObject: {fileID: 0}
  m_PrefabInstance: {fileID: 0}
  m_PrefabAsset: {fileID: 0}
  serializedVersion: 6
  m_Component:
  - component: {fileID: 4079062733244866538}
  - component: {fileID: 4079062733244866533}
  m_Layer: 0
  m_Name: PlayebleDirector
  m_TagString: PlayableDirector
  m_Icon: {fileID: 0}
  m_NavMeshLayer: 0
  m_StaticEditorFlags: 0
  m_IsActive: 1
--- !u!4 &4079062733244866538
Transform:
  m_ObjectHideFlags: 0
  m_CorrespondingSourceObject: {fileID: 0}
  m_PrefabInstance: {fileID: 0}
  m_PrefabAsset: {fileID: 0}
  m_GameObject: {fileID: 4079062733244866532}
  m_LocalRotation: {x: 0, y: 0, z: 0, w: 1}
  m_LocalPosition: {x: 6.3776608, y: -0.032567143, z: 17.688017}
  m_LocalScale: {x: 1, y: 1, z: 1}
  m_ConstrainProportionsScale: 0
  m_Children: []
  m_Father: {fileID: 0}
  m_RootOrder: 0
  m_LocalEulerAnglesHint: {x: 0, y: 0, z: 0}
--- !u!320 &4079062733244866533
PlayableDirector:
  m_ObjectHideFlags: 0
  m_CorrespondingSourceObject: {fileID: 0}
  m_PrefabInstance: {fileID: 0}
  m_PrefabAsset: {fileID: 0}
  m_GameObject: {fileID: 4079062733244866532}
  m_Enabled: 1
  serializedVersion: 3
  m_PlayableAsset: {fileID: 11400000, guid: 705270adbf2891b4882a1b2080fde754, type: 2}
  m_InitialState: 0
  m_WrapMode: 2
  m_DirectorUpdateMode: 1
  m_InitialTime: 0
  m_SceneBindings:
  - key: {fileID: 0}
    value: {fileID: 0}
  - key: {fileID: -3042008742803914590, guid: 705270adbf2891b4882a1b2080fde754, type: 2}
    value: {fileID: 0}
  - key: {fileID: -2352995745446358079, guid: 705270adbf2891b4882a1b2080fde754, type: 2}
    value: {fileID: 0}
  - key: {fileID: -3044517204272306559, guid: 705270adbf2891b4882a1b2080fde754, type: 2}
    value: {fileID: 0}
  - key: {fileID: -7360098966023311350, guid: 705270adbf2891b4882a1b2080fde754, type: 2}
    value: {fileID: 0}
  - key: {fileID: 0}
    value: {fileID: 0}
  m_ExposedReferences:
    m_References:
    - 2c4e63a74338dc047a741e6dc2542c38: {fileID: 0}
